%YAML 1.1
%TAG !u! tag:unity3d.com,2011:
--- !u!74 &7400000
AnimationClip:
  m_ObjectHideFlags: 0
  m_CorrespondingSourceObject: {fileID: 0}
  m_PrefabInstance: {fileID: 0}
  m_PrefabAsset: {fileID: 0}
  m_Name: Player Idle
  serializedVersion: 6
  m_Legacy: 0
  m_Compressed: 0
  m_UseHighQualityCurve: 1
  m_RotationCurves: []
  m_CompressedRotationCurves: []
  m_EulerCurves: []
  m_PositionCurves: []
  m_ScaleCurves: []
  m_FloatCurves: []
  m_PPtrCurves:
  - curve:
    - time: 0
      value: {fileID: 21300000, guid: cdf0b5e9c22eab54eb8b9f94fdcc103f, type: 3}
    - time: 0.041666668
      value: {fileID: 21300000, guid: 6cecd4ececba30844b1b299fa23e07e4, type: 3}
    - time: 0.083333336
      value: {fileID: 21300000, guid: 65ed7e8e5eac4a74fabcdbbfe9091751, type: 3}
    - time: 0.125
      value: {fileID: 21300000, guid: a71f5f1034a679745a8c6fd3e1df1efa, type: 3}
    - time: 0.16666667
      value: {fileID: 21300000, guid: e4fb3fc30d8e6764b99b9dbb4b1b3c5d, type: 3}
    - time: 0.20833333
      value: {fileID: 21300000, guid: d5089d2a5a60510409e1a660ca9832b6, type: 3}
    - time: 0.25
      value: {fileID: 21300000, guid: 525f1215ecb97414895b8ec47c978f49, type: 3}
    - time: 0.29166666
      value: {fileID: 21300000, guid: 05acabea59fbb434f8112b37f3afb83e, type: 3}
    - time: 0.33333334
      value: {fileID: 21300000, guid: 1dcbec6e69711a44c8f6c3d0f795c5b2, type: 3}
    - time: 0.375
      value: {fileID: 21300000, guid: f85a8ef370229e74cbb9805604741ee5, type: 3}
    attribute: m_Sprite
    path: Body
    classID: 212
    script: {fileID: 0}
  m_SampleRate: 24
  m_WrapMode: 0
  m_Bounds:
    m_Center: {x: 0, y: 0, z: 0}
    m_Extent: {x: 0, y: 0, z: 0}
  m_ClipBindingConstant:
    genericBindings:
    - serializedVersion: 2
      path: 2073732236
      attribute: 0
      script: {fileID: 0}
      typeID: 212
      customType: 23
      isPPtrCurve: 1
    pptrCurveMapping:
    - {fileID: 21300000, guid: cdf0b5e9c22eab54eb8b9f94fdcc103f, type: 3}
    - {fileID: 21300000, guid: 6cecd4ececba30844b1b299fa23e07e4, type: 3}
    - {fileID: 21300000, guid: 65ed7e8e5eac4a74fabcdbbfe9091751, type: 3}
    - {fileID: 21300000, guid: a71f5f1034a679745a8c6fd3e1df1efa, type: 3}
    - {fileID: 21300000, guid: e4fb3fc30d8e6764b99b9dbb4b1b3c5d, type: 3}
    - {fileID: 21300000, guid: d5089d2a5a60510409e1a660ca9832b6, type: 3}
    - {fileID: 21300000, guid: 525f1215ecb97414895b8ec47c978f49, type: 3}
    - {fileID: 21300000, guid: 05acabea59fbb434f8112b37f3afb83e, type: 3}
    - {fileID: 21300000, guid: 1dcbec6e69711a44c8f6c3d0f795c5b2, type: 3}
    - {fileID: 21300000, guid: f85a8ef370229e74cbb9805604741ee5, type: 3}
  m_AnimationClipSettings:
    serializedVersion: 2
    m_AdditiveReferencePoseClip: {fileID: 0}
    m_AdditiveReferencePoseTime: 0
    m_StartTime: 0
    m_StopTime: 0.41666666
    m_OrientationOffsetY: 0
    m_Level: 0
    m_CycleOffset: 0
    m_HasAdditiveReferencePose: 0
    m_LoopTime: 1
    m_LoopBlend: 0
    m_LoopBlendOrientation: 0
    m_LoopBlendPositionY: 0
    m_LoopBlendPositionXZ: 0
    m_KeepOriginalOrientation: 0
    m_KeepOriginalPositionY: 1
    m_KeepOriginalPositionXZ: 0
    m_HeightFromFeet: 0
    m_Mirror: 0
  m_EditorCurves: []
  m_EulerEditorCurves: []
  m_HasGenericRootTransform: 0
  m_HasMotionFloatCurves: 0
  m_Events: []
