%YAML 1.1
%TAG !u! tag:unity3d.com,2011:
--- !u!74 &7400000
AnimationClip:
  m_ObjectHideFlags: 0
  m_CorrespondingSourceObject: {fileID: 0}
  m_PrefabInstance: {fileID: 0}
  m_PrefabAsset: {fileID: 0}
  m_Name: Player Run
  serializedVersion: 6
  m_Legacy: 0
  m_Compressed: 0
  m_UseHighQualityCurve: 1
  m_RotationCurves: []
  m_CompressedRotationCurves: []
  m_EulerCurves: []
  m_PositionCurves: []
  m_ScaleCurves: []
  m_FloatCurves: []
  m_PPtrCurves:
  - curve:
    - time: 0
      value: {fileID: 21300000, guid: abc1bbc31a9199548bb7ba1eb3eef94e, type: 3}
    - time: 0.041666668
      value: {fileID: 21300000, guid: 7e5d40a83942a4e4cbf7365a3bfd5afb, type: 3}
    - time: 0.083333336
      value: {fileID: 21300000, guid: aaa2e557e63a575428d34eb62eca77e3, type: 3}
    - time: 0.125
      value: {fileID: 21300000, guid: 24ad62a35e3259f45ae718290a727016, type: 3}
    - time: 0.16666667
      value: {fileID: 21300000, guid: 4403b526c91936242a38fcf584508da5, type: 3}
    - time: 0.20833333
      value: {fileID: 21300000, guid: a82bbcc5e5b5ccd43a5458670b20c4b4, type: 3}
    - time: 0.25
      value: {fileID: 21300000, guid: 5ca38f22ede0b984f9948f20af131136, type: 3}
    - time: 0.29166666
      value: {fileID: 21300000, guid: b9e9ba59290bffa43b15b9e2e88cfafc, type: 3}
    - time: 0.33333334
      value: {fileID: 21300000, guid: d1b035579cb78ba42a12f675b2c811fd, type: 3}
    - time: 0.375
      value: {fileID: 21300000, guid: 3985afc55026c08418c864e26481e047, type: 3}
    attribute: m_Sprite
    path: Body
    classID: 212
    script: {fileID: 0}
  m_SampleRate: 24
  m_WrapMode: 0
  m_Bounds:
    m_Center: {x: 0, y: 0, z: 0}
    m_Extent: {x: 0, y: 0, z: 0}
  m_ClipBindingConstant:
    genericBindings:
    - serializedVersion: 2
      path: 2073732236
      attribute: 0
      script: {fileID: 0}
      typeID: 212
      customType: 23
      isPPtrCurve: 1
    pptrCurveMapping:
    - {fileID: 21300000, guid: abc1bbc31a9199548bb7ba1eb3eef94e, type: 3}
    - {fileID: 21300000, guid: 7e5d40a83942a4e4cbf7365a3bfd5afb, type: 3}
    - {fileID: 21300000, guid: aaa2e557e63a575428d34eb62eca77e3, type: 3}
    - {fileID: 21300000, guid: 24ad62a35e3259f45ae718290a727016, type: 3}
    - {fileID: 21300000, guid: 4403b526c91936242a38fcf584508da5, type: 3}
    - {fileID: 21300000, guid: a82bbcc5e5b5ccd43a5458670b20c4b4, type: 3}
    - {fileID: 21300000, guid: 5ca38f22ede0b984f9948f20af131136, type: 3}
    - {fileID: 21300000, guid: b9e9ba59290bffa43b15b9e2e88cfafc, type: 3}
    - {fileID: 21300000, guid: d1b035579cb78ba42a12f675b2c811fd, type: 3}
    - {fileID: 21300000, guid: 3985afc55026c08418c864e26481e047, type: 3}
  m_AnimationClipSettings:
    serializedVersion: 2
    m_AdditiveReferencePoseClip: {fileID: 0}
    m_AdditiveReferencePoseTime: 0
    m_StartTime: 0
    m_StopTime: 0.41666666
    m_OrientationOffsetY: 0
    m_Level: 0
    m_CycleOffset: 0
    m_HasAdditiveReferencePose: 0
    m_LoopTime: 1
    m_LoopBlend: 0
    m_LoopBlendOrientation: 0
    m_LoopBlendPositionY: 0
    m_LoopBlendPositionXZ: 0
    m_KeepOriginalOrientation: 0
    m_KeepOriginalPositionY: 1
    m_KeepOriginalPositionXZ: 0
    m_HeightFromFeet: 0
    m_Mirror: 0
  m_EditorCurves: []
  m_EulerEditorCurves: []
  m_HasGenericRootTransform: 0
  m_HasMotionFloatCurves: 0
  m_Events: []
