%YAML 1.1
%TAG !u! tag:unity3d.com,2011:
--- !u!74 &7400000
AnimationClip:
  m_ObjectHideFlags: 0
  m_CorrespondingSourceObject: {fileID: 0}
  m_PrefabInstance: {fileID: 0}
  m_PrefabAsset: {fileID: 0}
  m_Name: Zombie Male Walk
  serializedVersion: 6
  m_Legacy: 0
  m_Compressed: 0
  m_UseHighQualityCurve: 1
  m_RotationCurves: []
  m_CompressedRotationCurves: []
  m_EulerCurves: []
  m_PositionCurves: []
  m_ScaleCurves: []
  m_FloatCurves: []
  m_PPtrCurves:
  - curve:
    - time: 0
      value: {fileID: 21300000, guid: ab4843ca36e439e428677f636aaa4665, type: 3}
    - time: 0.125
      value: {fileID: 21300000, guid: 29cca3e5ad1b1a64abafc8baf258466e, type: 3}
    - time: 0.25
      value: {fileID: 21300000, guid: 0a90baf5c27d83c449b2e8d57adb8013, type: 3}
    - time: 0.375
      value: {fileID: 21300000, guid: f4e567a815e580b4791ca0516b23cb36, type: 3}
    - time: 0.5
      value: {fileID: 21300000, guid: e76430da5deb41e4a865251bfe27fe10, type: 3}
    - time: 0.625
      value: {fileID: 21300000, guid: a63cf1b5b1f315f4b9ea978becd27977, type: 3}
    - time: 0.75
      value: {fileID: 21300000, guid: 32bcd3258e8270947a254b63a6a2da80, type: 3}
    - time: 0.875
      value: {fileID: 21300000, guid: bce40ca8af975a549ac9f474c4a6668e, type: 3}
    - time: 1
      value: {fileID: 21300000, guid: ab1e78017ec41304f98533780e1595c8, type: 3}
    - time: 1.125
      value: {fileID: 21300000, guid: bbe0e8cd666776146934e669cea3051b, type: 3}
    attribute: m_Sprite
    path: Body
    classID: 212
    script: {fileID: 0}
  m_SampleRate: 8
  m_WrapMode: 0
  m_Bounds:
    m_Center: {x: 0, y: 0, z: 0}
    m_Extent: {x: 0, y: 0, z: 0}
  m_ClipBindingConstant:
    genericBindings:
    - serializedVersion: 2
      path: 2073732236
      attribute: 0
      script: {fileID: 0}
      typeID: 212
      customType: 23
      isPPtrCurve: 1
    pptrCurveMapping:
    - {fileID: 21300000, guid: ab4843ca36e439e428677f636aaa4665, type: 3}
    - {fileID: 21300000, guid: 29cca3e5ad1b1a64abafc8baf258466e, type: 3}
    - {fileID: 21300000, guid: 0a90baf5c27d83c449b2e8d57adb8013, type: 3}
    - {fileID: 21300000, guid: f4e567a815e580b4791ca0516b23cb36, type: 3}
    - {fileID: 21300000, guid: e76430da5deb41e4a865251bfe27fe10, type: 3}
    - {fileID: 21300000, guid: a63cf1b5b1f315f4b9ea978becd27977, type: 3}
    - {fileID: 21300000, guid: 32bcd3258e8270947a254b63a6a2da80, type: 3}
    - {fileID: 21300000, guid: bce40ca8af975a549ac9f474c4a6668e, type: 3}
    - {fileID: 21300000, guid: ab1e78017ec41304f98533780e1595c8, type: 3}
    - {fileID: 21300000, guid: bbe0e8cd666776146934e669cea3051b, type: 3}
  m_AnimationClipSettings:
    serializedVersion: 2
    m_AdditiveReferencePoseClip: {fileID: 0}
    m_AdditiveReferencePoseTime: 0
    m_StartTime: 0
    m_StopTime: 1.25
    m_OrientationOffsetY: 0
    m_Level: 0
    m_CycleOffset: 0
    m_HasAdditiveReferencePose: 0
    m_LoopTime: 1
    m_LoopBlend: 0
    m_LoopBlendOrientation: 0
    m_LoopBlendPositionY: 0
    m_LoopBlendPositionXZ: 0
    m_KeepOriginalOrientation: 0
    m_KeepOriginalPositionY: 1
    m_KeepOriginalPositionXZ: 0
    m_HeightFromFeet: 0
    m_Mirror: 0
  m_EditorCurves: []
  m_EulerEditorCurves: []
  m_HasGenericRootTransform: 0
  m_HasMotionFloatCurves: 0
  m_Events: []
